<?xml version="1.0" encoding="UTF-8" standalone="no"?>
<!-- Created with Inkscape (http://www.inkscape.org/) -->

<svg
   xmlns:dc="http://purl.org/dc/elements/1.1/"
   xmlns:cc="http://creativecommons.org/ns#"
   xmlns:rdf="http://www.w3.org/1999/02/22-rdf-syntax-ns#"
   xmlns:svg="http://www.w3.org/2000/svg"
   xmlns="http://www.w3.org/2000/svg"
   xmlns:sodipodi="http://sodipodi.sourceforge.net/DTD/sodipodi-0.dtd"
   xmlns:inkscape="http://www.inkscape.org/namespaces/inkscape"
   width="88.717354mm"
   height="88.7173mm"
   viewBox="0 0 88.717353 88.7173"
   version="1.1"
   id="svg11085"
   inkscape:version="0.92.5 (2060ec1f9f, 2020-04-08)"
   sodipodi:docname="album-xs.svg">
  <defs
     id="defs11079" />
  <sodipodi:namedview
     id="base"
     pagecolor="#ffffff"
     bordercolor="#666666"
     borderopacity="1.0"
     inkscape:pageopacity="0.0"
     inkscape:pageshadow="2"
     inkscape:zoom="0.7"
     inkscape:cx="326.41086"
     inkscape:cy="340.1991"
     inkscape:document-units="mm"
     inkscape:current-layer="g11376"
     showgrid="false"
     fit-margin-top="0"
     fit-margin-left="0"
     fit-margin-right="0"
     fit-margin-bottom="0"
     inkscape:window-width="1920"
     inkscape:window-height="1024"
     inkscape:window-x="0"
     inkscape:window-y="0"
     inkscape:window-maximized="1" />
  <metadata
     id="metadata11082">
    <rdf:RDF>
      <cc:Work
         rdf:about="">
        <dc:format>image/svg+xml</dc:format>
        <dc:type
           rdf:resource="http://purl.org/dc/dcmitype/StillImage" />
        <dc:title></dc:title>
      </cc:Work>
    </rdf:RDF>
  </metadata>
  <g
     inkscape:label="Layer 1"
     inkscape:groupmode="layer"
     id="layer1"
     transform="translate(112.16278,-245.60616)">
    <g
       id="g11376"
       transform="matrix(0.26458333,0,0,0.26458333,-1288.9517,-420.66819)">
      <g
         id="g11364"
         style="stroke-width:5;stroke-miterlimit:4;stroke-dasharray:none"
         transform="matrix(1.5199737,0,0,1.5199737,-2404.7959,-1406.555)">
        <path
           inkscape:connector-curvature="0"
           id="rect5131-6-1-8-3-8-0-3"
           d="m 4535.0007,2597.8056 c -8.6147,0 -15.5499,6.8217 -15.5499,15.2953 v 164.2613 c 0,8.4735 6.9352,15.2953 15.5499,15.2953 8.6146,0 15.5498,-6.8218 15.5498,-15.2953 v -164.2613 c 0,-8.4736 -6.9352,-15.2953 -15.5498,-15.2953 z"
           style="opacity:1;fill:#ffffff;fill-opacity:1;stroke:#000000;stroke-width:5;stroke-linecap:round;stroke-linejoin:round;stroke-miterlimit:4;stroke-dasharray:none;stroke-dashoffset:0;stroke-opacity:1" />
        <path
           sodipodi:nodetypes="sssssssss"
           inkscape:connector-curvature="0"
           id="rect5256-7-2-1-3-7-8-3-8"
           d="m 4544.9916,2613.7345 c 55.6982,-6.9992 111.927,-8.2745 169.0409,0 2.0419,0.2958 3.7253,1.6298 3.7253,3.6544 v 168.9432 c 0,2.0244 -1.676,3.895 -3.7253,3.6544 -60.9061,-7.1555 -115.0715,-3.7317 -169.0409,0 -2.0586,0.1423 -13.5567,-11.8808 -13.4331,-13.9015 l 9.7077,-158.6961 c 0.1236,-2.0208 1.6783,-3.3971 3.7254,-3.6544 z"
           style="opacity:1;fill:#ffffff;fill-opacity:1;stroke:#000000;stroke-width:5;stroke-linecap:round;stroke-linejoin:round;stroke-miterlimit:4;stroke-dasharray:none;stroke-dashoffset:0;stroke-opacity:1" />
        <path
           sodipodi:nodetypes="sssssssss"
           inkscape:connector-curvature="0"
           id="rect5256-7-2-1-3-7-8-3"
           d="m 4535.0007,2599.8056 c 55.6982,-6.9992 111.9272,-8.2745 169.041,0 2.0418,0.2958 3.7253,1.6299 3.7253,3.6544 v 168.9432 c 0,2.0245 -1.676,3.895 -3.7253,3.6543 -60.9062,-7.1555 -115.0715,-3.7317 -169.041,0 -2.0586,0.1424 -3.7253,-1.6298 -3.7253,-3.6543 V 2603.46 c 0,-2.0245 1.6782,-3.3971 3.7253,-3.6544 z"
           style="opacity:1;fill:#ffffff;fill-opacity:1;stroke:#000000;stroke-width:5;stroke-linecap:round;stroke-linejoin:round;stroke-miterlimit:4;stroke-dasharray:none;stroke-dashoffset:0;stroke-opacity:1" />
        <path
           inkscape:connector-curvature="0"
           id="rect11059-4-6-3-3-4"
           d="m 4655.461,2610.192 c 19.544,0 35.2781,15.4337 35.2781,34.6047 0,19.171 -15.7341,34.6048 -35.2781,34.6048 -19.5441,0 -35.2781,-15.4338 -35.2781,-34.6048 0,-19.171 15.734,-34.6047 35.2781,-34.6047 z"
           style="opacity:1;fill:#ffffff;fill-opacity:0;stroke:none;stroke-width:5;stroke-linecap:square;stroke-linejoin:miter;stroke-miterlimit:4;stroke-dasharray:none;stroke-dashoffset:0;stroke-opacity:1" />
        <path
           sodipodi:nodetypes="ccccc"
           inkscape:connector-curvature="0"
           id="rect11282-5-0-8-5-2-2"
           d="m 4554.8058,2620.6661 c 42.3414,-5.2202 86.306,-5.1301 131.8107,0 v 56.7804 c -43.9368,-3.9108 -87.8738,-3.8588 -131.8107,0 z"
           style="opacity:1;fill:#0127f9;fill-opacity:1;stroke:none;stroke-width:5;stroke-linecap:round;stroke-linejoin:round;stroke-miterlimit:4;stroke-dasharray:none;stroke-dashoffset:0;stroke-opacity:1" />
        <g
           transform="matrix(0.4928418,0.00191527,-0.00195253,0.48343508,3270.3422,2540.9732)"
           id="g12579-4-3-0-5"
           style="fill:#ff8322;fill-opacity:0.99390247;stroke:none;stroke-width:10.24339104;stroke-miterlimit:4;stroke-dasharray:none">
          <path
             sodipodi:nodetypes="ccccc"
             inkscape:connector-curvature="0"
             id="rect11282-56-6-2-5-3-8"
             d="m 2737.8135,288.88535 c 25.9405,-1.81411 74.8467,0.35637 136.9511,4.81679 l -1.1995,132.96958 c -45.561,-1.66066 -91.4746,-3.4996 -133.9953,-3.62312 z"
             style="opacity:1;fill:#ff8322;fill-opacity:0.99390247;stroke:none;stroke-width:10.24339104;stroke-linecap:round;stroke-linejoin:round;stroke-miterlimit:4;stroke-dasharray:none;stroke-dashoffset:0;stroke-opacity:1" />
        </g>
        <path
           style="fill:#050505;fill-opacity:0.99390247;stroke:#000000;stroke-width:5;stroke-linecap:butt;stroke-linejoin:miter;stroke-miterlimit:4;stroke-dasharray:none;stroke-opacity:1"
           d="m 4643.7645,2706.535 0.4388,25.0578 19.5209,-12.8198 z"
           id="path19742-2"
           inkscape:connector-curvature="0" />
      </g>
    </g>
  </g>
</svg>
